{
    "games": [
        {
            "game": {
                "endDate": "2020-08-21 11:50:00.000",
                "missions": [
                    {
                        "mission": {
                            "color": "4283215696",
                            "endDate": "1709372800000",
                            "iconName": "directions_run",
                            "name": "Corrida Open",
                            "description": "Correr 1000 km",
                            "id": "ddX39yFzgm0XoV53tiBp",
                            "close": true,
                            "points": 500,
                            "mission_active": true
                        }
                    },
                    {
                        "mission": {
                            "color": "4280391411",
                            "endDate": "1709372800000",
                            "iconName": "gamepad",
                            "name": "Pular carnaval",
                            "description": "Cair na folia",
                            "id": "e75vWboeTQNP04uljyH4",
                            "points": 9000,
                            "mission_active": true
                        }
                    }
                ],
                "name": "Open Lost",
                "working": "true",
                "id": "GK0XkxiAJkZkGYRrj7Kg",
                "initialDate": "2020-02-17 11:49:00.000",
                "rewards": [
                    {
                        "reward": {
                            "color": "4283215696",
                            "subTitle": "Para Lucas ouvir Iron maiden e Metallica",
                            "dateLimit": "1580142660000",
                            "limit": "1",
                            "used": "0",
                            "id": "Gelb4PTbM0ehfkSgtSMc",
                            "title": "Spotify",
                            "value": "100",
                            "points": "200"
                        }
                    },
                    {
                        "reward": {
                            "color": "4294198070",
                            "subTitle": "Netflix",
                            "dateLimit": "1580490660000",
                            "limit": "10",
                            "used": "0",
                            "id": "LiM32BhPF3DZzC1Ocdj0",
                            "title": "Netflix",
                            "value": "100",
                            "points": "200"
                        }
                    }
                ]
            }
        }
    ],
    "user": {
        "name": "Yuri",
        "active": true,
        "registration": "3819009",
        "id": "pjxnr91oNccvMHhlILZawO8Q9zB3",
        "email": "yuri-m-moreira@openlabs.com.br",
        "points": 1500
    }
}