{
	"Games": [
		{
			"name": "GameLabs",
			"ranking": "2",
			"imagePath": "assets/images/open_labs_black.png",
			"currentRewardPoints": "3993",
			"totalRewardPoints": "5143",
			"startDate": "2019-12-21",
			"endDate": "2019-12-30",
			"mission": {
				"currentProgress": "0.05",
				"desiredProgress": "0.1",
				"goalOfTheDay": "0.2"
			},
			"Rewards": [
				{
					"name": "Netflix Card",
					"description": "Gift Card Netflix R$65",
					"price": "1200",
					"maxRedemptions": "10",
					"currentRedemptions": "3"
				},
				{
					"name": "Nike Card",
					"description": "Gift Card Nike R$500",
					"price": "7132",
					"maxRedemptions": "5",
					"currentRedemptions": "2"
				},
				{
					"name": "Spotify Card",
					"description": "Gift Card Spotify R$20",
					"price": "500",
					"maxRedemptions": "10",
					"currentRedemptions": "10"
				},
				{
					"name": "Nespresso",
					"description": "1 pack of Nespresso's coffe",
					"price": "650",
					"maxRedemptions": "40",
					"currentRedemptions": "40"
				}
			],
			"purchaseHistory": [
				{
					"name": "Spotify Card",
					"description": "Gift Card Spotify R$20",
					"price": "500",
					"date": "2019-09-27"
				},
				{
					"name": "Nespresso",
					"description": "1 pack of Nespresso's coffe",
					"price": "650",
					"date": "2019-10-01"
				},
				{
					"name": "Nike Card",
					"description": "Gift Card Nike R$500",
					"price": "7132",
					"date": "2019-09-26"
				},
				{
					"name": "Netflix Card",
					"description": "Gift Card Netflix R$65",
					"price": "1200",
					"date": "2019-09-30"
				}
			],
			"challenges": [
				{
					"name": "Sell Recharges R$50",
					"description": "Sell 30 mobile recharges for R$50 | 02/Oct",
					"price": "300",
					"challengeGoal": "30",
					"challengeProgress": "12"
				},
				{
					"name": "Sell Recharges R$35",
					"description": "Sell 10 mobile recharges for R$35 | 02/Oct",
					"price": "217",
					"challengeGoal": "10",
					"challengeProgress": "10"
				},
				{
					"name": "Sell Recharges R$10",
					"description": "Sell 30 mobile recharges for R$10 | 01/Oct",
					"price": "137",
					"challengeGoal": "10",
					"challengeProgress": "10"
				},
				{
					"name": "Sell Recharges R$50",
					"description": "Sell 30 mobile recharges for R$10 | 27/Sep",
					"price": "500",
					"challengeGoal": "40",
					"challengeProgress": "15"
				}
			]
		}
		
	]
}