{
  "project_info": {
    "project_number": "67582166929",
    "firebase_url": "https://gamification-homol.firebaseio.com",
    "project_id": "gamification-homol",
    "storage_bucket": "gamification-homol.appspot.com"
  },
  "client": [
    {
      "client_info": {
        "mobilesdk_app_id": "1:67582166929:android:a5fe107b7449dcac61bc30",
        "android_client_info": {
          "package_name": "br.com.openlabs.pd.gamification"
        }
      },
      "oauth_client": [
        {
          "client_id": "67582166929-rdnt5n5isgqo4lv578pt8nk1r4qgkkij.apps.googleusercontent.com",
          "client_type": 3
        }
      ],
      "api_key": [
        {
          "current_key": "AIzaSyDhuR-H5ObOH7MTg2D8-yynKDMczoYDTQU"
        }
      ],
      "services": {
        "appinvite_service": {
          "other_platform_oauth_client": [
            {
              "client_id": "67582166929-rdnt5n5isgqo4lv578pt8nk1r4qgkkij.apps.googleusercontent.com",
              "client_type": 3
            }
          ]
        }
      }
    }
  ],
  "configuration_version": "1"
}